Práctica 1
…
nba_api2 <- nba_api2 %>% 
  select(
    year = yearSeason,
    winner = nameTeam)

nba_conf3 <- nba_api2 %>%
  left_join(conference_map2, by = c("winner" = "team"))

conf_summary_year3 <- nba_conf3 %>%
  group_by(year, conference) %>%
  summarise(total_wins = n())

conf_summary_year3

# A tibble: 32 × 3
# Groups:   year [11]
    year conference total_wins
   <int> <chr>           <int>
 1  2014 East              513
 2  2014 West              674
 3  2014 <NA>               43
 4  2015 East              577
 5  2015 West              653
 6  2016 East              608
 7  2016 West              569
 8  2016 <NA>               53
 9  2017 East              594
10  2017 West              585
# ℹ 22 more rows

Vemos que en este caso volvemos a tener valores NA, pero esta vez es un NA que se repite prácticamente todos los años. Para ver de qué se trata, volvemos a usar el codigo de trata de errores.

colSums(is.na(nba_conf3))

      year     winner conference 
         0          0        469 

nba_conf3[!complete.cases(nba_conf3), ]

# A tibble: 469 × 3
    year winner            conference
   <int> <chr>             <chr>     
 1  2014 Charlotte Bobcats <NA>      
 2  2014 Charlotte Bobcats <NA>      
 3  2014 Charlotte Bobcats <NA>      
 4  2014 Charlotte Bobcats <NA>      
 5  2014 Charlotte Bobcats <NA>      
 6  2014 Charlotte Bobcats <NA>      
 7  2014 Charlotte Bobcats <NA>      
 8  2014 Charlotte Bobcats <NA>      
 9  2014 Charlotte Bobcats <NA>      
10  2014 Charlotte Bobcats <NA>      
# ℹ 459 more rows
…
nba_conf3 <- nba_api2 %>%
  left_join(conference_map3, by = c("winner" = "team"))

conf_summary_year3 <- nba_conf3 %>%
  group_by(year, conference) %>%
  summarise(total_wins = n())

conf_summary_year3

# A tibble: 22 × 3
# Groups:   year [11]
    year conference total_wins
   <int> <chr>           <int>
 1  2014 East              556
 2  2014 West              674
 3  2015 East              577
 4  2015 West              653
 5  2016 East              608
 6  2016 West              622
 7  2017 East              594
 8  2017 West              636
 9  2018 East              603
10  2018 West              627
# ℹ 12 more rows
…
